climplot: Facilitate and tailor Walter & Lieth climatic diagram construction • climplot
…
After preparing the climate dataset and location information, import
the data.frame and path of three climate datasets, this function will
export a data.frame.

#Modify the path of yours
a <- "G:/climplot/climdata/tmin"
b <- "G:/climplot/climdata/tmax"
c <- "G:/climplot/climdata/prec"

#extraction of climate data

plotdata <- clim_extract(locdata,a,b,c)
}

## # A tibble: 30 × 18
##       No Altitude Location     Lon   Lat Type      `1`    `2`   `3`   `4`    `5`
##    <dbl>    <dbl> <chr>      <dbl> <dbl> <chr>   <dbl>  <dbl> <dbl> <dbl>  <dbl>
##  1     1     2025 Motuo       95.4  29.3 precip… 10.1  21.0   44.9  98.9  137.  
##  2     1     2025 Motuo       95.4  29.3 min.te… -1.10  0.600  3.70  7.20  11.2 
##  3     1     2025 Motuo       95.4  29.3 max.te… 12.3  13.8   16.5  19.2   22.7 
##  4     2     1301 Wulianshan 100.   24.5 precip… 18.0   7.16  20.4  37.6   60.4 
##  5     2     1301 Wulianshan 100.   24.5 min.te…  6.80  8.5   11.8  15.2   18.2 
##  6     2     1301 Wulianshan 100.   24.5 max.te… 21    24.1   26.7  29     30.1 
##  7     3     2082 Wawushan   103.   29.5 precip…  7.88  8.52  24.0  59.9  101.  
##  8     3     2082 Wawushan   103.   29.5 min.te… -5.20 -3.60   0     4.30   7.70
##  9     3     2082 Wawushan   103.   29.5 max.te…  4     6.10  10.4  14.7   17.2 
## 10     4     1204 Leibo      103.   28.4 precip…  9.54  9.82  24.9  59.4   90.1 
## # ℹ 20 more rows
## # ℹ 7 more variables: `6` <dbl>, `7` <dbl>, `8` <dbl>, `9` <dbl>, `10` <dbl>,
## #   `11` <dbl>, `12` <dbl>
…
#Modify the path of yours
a <- "G:/climplot/climdata/tmin"
b <- "G:/climplot/climdata/tmax"
c <- "G:/climplot/climdata/prec"
d <- "G:/climplot/climdata/extmin"
#extraction of climate data

plotdata <- clim_extract(locdata,a,b,c,Frost = TRUE,d)
}

## # A tibble: 40 × 18
##       No Altitude Location     Lon   Lat Type      `1`    `2`   `3`   `4`    `5`
##    <dbl>    <dbl> <chr>      <dbl> <dbl> <chr>   <dbl>  <dbl> <dbl> <dbl>  <dbl>
##  1     1     2025 Motuo       95.4  29.3 precip… 10.1  21.0   44.9  98.9  137.  
##  2     1     2025 Motuo       95.4  29.3 min.te… -1.10  0.600  3.70  7.20  11.2 
##  3     1     2025 Motuo       95.4  29.3 max.te… 12.3  13.8   16.5  19.2   22.7 
##  4     1     2025 Motuo       95.4  29.3 extrem… -2    -1      2     7     11   
##  5     2     1301 Wulianshan 100.   24.5 precip… 18.0   7.16  20.4  37.6   60.4 
##  6     2     1301 Wulianshan 100.   24.5 min.te…  6.80  8.5   11.8  15.2   18.2 
##  7     2     1301 Wulianshan 100.   24.5 max.te… 21    24.1   26.7  29     30.1 
##  8     2     1301 Wulianshan 100.   24.5 extrem…  6     8     11    15     17   
##  9     3     2082 Wawushan   103.   29.5 precip…  7.88  8.52  24.0  59.9  101.  
## 10     3     2082 Wawushan   103.   29.5 min.te… -5.20 -3.60   0     4.30   7.70
## # ℹ 30 more rows
## # ℹ 7 more variables: `6` <dbl>, `7` <dbl>, `8` <dbl>, `9` <dbl>, `10` <dbl>,
## #   `11` <dbl>, `12` <dbl>
…
